{
  "_comment": "Build with `packer build ubuntu1804.json`",
  "builders": [
    {
      "type": "qemu",
      "accelerator": "kvm",
      "qemu_binary": "kvm",
      "vm_name": "{{ user `vm_name` }}",
      "disk_size": "{{ user `disk_size` }}",
      "disk_interface": "virtio",
      "format": "qcow2",
      "headless": "{{ user `headless` }}",
      "net_device": "virtio-net",
      "iso_urls": [
        "{{ user `iso_path` }}/{{ user `iso_name` }}",
        "{{ user `iso_url` }}"
      ],
      "iso_checksum": "{{ user `iso_checksum` }}",
      "iso_checksum_type": "{{ user `iso_checksum_type` }}",
      "http_directory": "http",
      "boot_command": [
        "<esc><wait>",
        "<esc><wait>",
        "<enter><wait>",
        "/install/vmlinuz<wait>",
        " auto<wait>",
        " console-setup/ask_detect=false<wait>",
        " console-setup/layoutcode=us<wait>",
        " console-setup/modelcode=pc105<wait>",
        " debconf/frontend=noninteractive<wait>",
        " debian-installer=en_US.UTF-8<wait>",
        " fb=false<wait>",
        " initrd=/install/initrd.gz<wait>",
        " kbd-chooser/method=us<wait>",
        " keyboard-configuration/layout=USA<wait>",
        " keyboard-configuration/variant=USA<wait>",
        " locale=en_US.UTF-8<wait>",
        " netcfg/get_domain=vm<wait>",
        " netcfg/get_hostname=vagrant<wait>",
        " grub-installer/bootdev=/dev/vda<wait>",
        " noapic<wait>",
        " preseed/url=http://{{ .HTTPIP }}:{{ .HTTPPort }}/{{user `preseed`}}<wait>",
        " -- <wait>",
        "<enter><wait>"
      ],
      "boot_wait": "5s",
      "shutdown_command": "{{ user `shutdown_command` }}",
      "ssh_password": "{{ user `ssh_password` }}",
      "ssh_username": "{{ user `ssh_username` }}",
      "ssh_port": "{{ user `ssh_port` }}",
      "ssh_wait_timeout": "{{ user `ssh_wait_timeout` }}",
      "output_directory": "builds/libvirt/{{user `vm_name`}}",
      "qemuargs": [
        [ "-m", "{{ user `memory` }}M" ],
        [ "-smp", "{{ user `cpus` }}" ],
        [ "-display", "gtk" ]
      ]
    }
  ],
  "provisioners": [
      {
        "environment_vars": [
          "http_proxy={{user `http_proxy`}}",
          "https_proxy={{user `https_proxy`}}",
          "no_proxy={{user `no_proxy`}}"
        ],
        "execute_command": "echo 'sysadmin' | {{.Vars}} sudo -S -E bash '{{.Path}}'",
        "expect_disconnect": true,
        "scripts": [
          "bin/ubuntu-networking.sh",
          "bin/ubuntu-update.sh",
          "bin/ubuntu-cleanup.sh"
        ],
        "type": "shell"
      }
    ],
  "variables": {
    "vm_name":           "template-ubuntu1804-x64-server.qcow2",
    "cpus":              "2",
    "memory":            "2048",
    "disk_size":         "10240",
    "headless":          "false",
    "http_proxy":        "{{env `http_proxy`}}",
    "https_proxy":       "{{env `https_proxy`}}",
    "no_proxy":          "{{env `no_proxy`}}",
    "iso_checksum":      "8c5fc24894394035402f66f3824beb7234b757dd2b5531379cb310cedfdf0996",
    "iso_checksum_type": "sha256",
    "iso_name":          "ubuntu-18.04.5-server-amd64.iso",
    "iso_path":          "iso",
    "iso_url":           "http://cdimage.ubuntu.com/ubuntu/releases/18.04.5/release/ubuntu-18.04.5-server-amd64.iso",
    "preseed":           "preseed.cfg",
    "shutdown_command":  "echo 'sysadmin'|sudo -S shutdown -P now",
    "ssh_password":      "sysadmin",
    "ssh_username":      "sysadmin",
    "ssh_port":          "22",
    "ssh_wait_timeout":  "20m"
  }
}
